# Blender v2.72 (sub 0) OBJ File: 'Bread.blend'
# www.blender.org
o Cube
v 0.309889 -1.000000 -1.000000
v 0.309889 -1.000000 1.000000
v -0.323454 -1.000000 1.000000
v -0.323454 -1.000000 -1.000000
v 0.309889 1.027414 -0.940163
v 0.313333 1.019681 0.944353
v -0.320010 1.019681 0.944352
v -0.323454 1.038916 -0.937544
v 0.309889 1.320897 0.000001
v -0.323454 1.320897 -0.000000
v 0.309889 1.488026 0.500001
v -0.323454 1.485217 -0.500000
v 0.309889 1.472440 -0.499999
v -0.323454 1.472440 0.500000
v 0.309888 1.363668 0.772225
v -0.323454 1.360130 -0.791717
v 0.309889 1.505577 -0.249999
v -0.323454 1.505577 0.250000
v 0.309889 1.524614 0.250001
v -0.323454 1.505577 -0.250000
v 0.309889 1.360130 -0.791717
v -0.323454 1.380166 0.772224
v 0.332664 0.794767 0.790772
v -0.323454 0.794767 0.790771
v 0.309889 0.805339 -0.799849
v -0.323454 0.817136 -0.799850
v 0.306098 0.892740 -0.887428
v -0.327245 0.905561 -0.899951
v 0.323780 0.881400 0.910558
v -0.330431 0.881400 0.910557
v -0.321732 1.231050 0.909730
v 0.311611 1.231050 0.909730
v -0.323454 1.435974 0.092960
v 0.309889 1.445540 0.100347
v 0.309889 1.445563 -0.106703
v -0.323454 1.445563 -0.106704
v 0.309889 1.233492 -0.886790
v -0.323454 1.239243 -0.885480
vt 0.431268 0.607233
vt 0.567842 0.607233
vt 0.567842 1.000000
vt 0.000510 0.612437
vt 0.137083 0.611862
vt 0.000214 0.653915
vt 0.382171 0.039007
vt 0.215653 0.049373
vt 0.323471 0.008867
vt 0.294745 0.613553
vt 0.294745 0.772571
vt 0.262867 0.770418
vt 0.411823 0.071150
vt 0.419290 0.122379
vt 0.863390 0.175635
vt 0.862547 0.161674
vt 0.999965 0.178397
vt 0.204121 0.765370
vt 0.172846 0.765360
vt 0.204277 0.611872
vt 0.000506 0.815445
vt 0.000269 0.766112
vt 0.136846 0.768149
vt 0.863368 0.048533
vt 0.863425 0.000000
vt 1.000000 0.002990
vt 0.000000 0.702980
vt 0.136569 0.699641
vt 0.173003 0.611862
vt 0.239331 0.765424
vt 0.239487 0.611926
vt 0.863351 0.133089
vt 0.863353 0.082938
vt 0.999925 0.135956
vt 0.262867 0.611862
vt 0.709327 0.607233
vt 0.572192 0.944571
vt 0.708766 0.944571
vt 0.269563 0.000000
vt 0.024430 0.070556
vt 0.044932 0.039864
vt 0.012919 0.120501
vt 0.107837 0.012645
vt 0.192645 0.019159
vt 0.412019 0.155905
vt 0.386203 0.176912
vt 0.024283 0.153136
vt 0.043174 0.174323
vt 0.431268 0.611862
vt 0.000000 0.611862
vt 0.863426 0.612470
vt 1.000000 0.612482
vt 0.862547 0.607233
vt 0.476377 0.172267
vt 0.819377 0.166846
vt 0.443260 0.117751
vt 0.849069 0.113096
vt 0.450542 0.151286
vt 0.480373 0.030394
vt 0.646896 0.044758
vt 0.450723 0.066529
vt 0.837840 0.064547
vt 0.817621 0.035249
vt 0.754715 0.004934
vt 0.669904 0.014545
vt 0.539075 0.008031
vt 0.592985 0.000000
vt 0.626849 0.016868
vt 0.431268 1.000000
vt 0.136787 0.653340
vt 0.999124 0.163843
vt 0.137083 0.818060
vt 0.999942 0.048545
vt 0.138831 0.765424
vt 0.999927 0.084377
vt 0.239487 0.767886
vt 0.239487 0.614388
vt 0.840960 0.145423
vt 0.351768 0.611908
vt 0.351768 0.765406
vt 0.319989 0.611893
vt 0.322409 0.765392
vt 0.294745 0.611862
vt 0.298693 0.765359
vt 0.237292 0.019164
vt 0.161746 0.004614
vt 0.700805 0.000000
vn 0.000000 -1.000000 0.000000
vn -0.000000 0.161600 0.986800
vn 1.000000 0.000000 0.000000
vn -0.000000 -0.810300 0.586000
vn 1.000000 0.007200 -0.005500
vn -0.014000 -0.749700 -0.661700
vn -0.000000 0.922400 0.386300
vn -0.024400 0.991000 0.131400
vn 0.018500 0.918900 -0.394000
vn 0.024700 0.946800 0.320900
vn 0.000000 0.996700 -0.081200
vn -0.000000 0.650300 0.759700
vn 0.000600 0.251500 -0.967800
vn -0.000000 0.115800 0.993300
vn 0.997300 0.069600 0.023700
vn 0.990500 -0.073300 -0.116100
vn 0.999800 -0.014400 -0.014400
vn 0.002000 0.109500 -0.994000
vn 0.000000 0.110200 -0.993900
vn -1.000000 -0.000000 -0.000000
vn -0.999900 0.014000 0.002000
vn -0.985000 0.107200 -0.134900
vn -0.999900 -0.010800 0.000800
vn -1.000000 -0.008000 0.001100
vn -0.000400 -0.707800 -0.706400
vn -0.029700 0.989000 0.144700
vn 0.000000 0.933200 -0.359300
vn -0.022400 0.909400 0.415400
vn 0.020000 0.991100 -0.131400
vn 0.000300 0.250700 -0.968100
vn 0.013500 -0.271700 -0.962300
vn -0.010500 -0.364300 -0.931200
vn -0.000000 -0.237400 0.971400
vn 0.996200 0.086600 -0.001500
vn 0.999900 -0.009100 -0.014400
vn -0.995200 0.051800 0.083500
vn -0.000000 0.677900 0.735100
vn 0.018700 0.719800 0.694000
vn 1.000000 0.009700 -0.000500
vn 0.000000 0.627100 -0.778900
vn -0.000400 0.628400 -0.777900
vn -0.007900 0.884100 -0.467200
vn -0.027500 0.913900 -0.405000
vn 0.003900 0.612900 -0.790200
vn 0.000000 0.600400 -0.799700
vn 1.000000 0.005800 -0.001800
vn -1.000000 -0.005900 0.001800
s off
f 2/1/1 3/2/1 4/3/1
f 7/4/2 6/5/2 31/6/2
f 15/7/3 9/8/3 11/9/3
f 24/10/4 23/11/4 29/12/4
f 32/13/5 6/14/5 15/7/5
f 26/15/6 28/16/6 25/17/6
f 35/18/7 17/19/7 36/20/7
f 18/21/8 14/22/8 11/23/8
f 16/24/9 12/25/9 13/26/9
f 14/22/10 22/27/10 15/28/10
f 12/5/11 20/29/11 17/19/11
f 9/30/12 35/18/12 10/31/12
f 8/32/13 38/33/13 5/34/13
f 30/35/4 24/10/4 29/12/4
f 23/2/14 24/36/14 2/37/14
f 3/38/14 2/37/14 24/36/14
f 19/39/3 11/9/3 9/8/3
f 37/40/3 21/41/3 5/42/3
f 13/43/3 9/8/3 21/41/3
f 35/44/3 9/8/3 13/43/3
f 5/42/3 21/41/3 9/8/3
f 29/45/15 23/46/15 6/14/15
f 27/47/16 5/42/16 25/48/16
f 2/49/17 25/48/17 23/46/17
f 2/49/3 1/50/3 25/48/3
f 26/15/18 25/17/18 4/51/18
f 4/51/19 25/17/19 1/52/19
f 4/53/20 3/1/20 24/54/20
f 4/53/20 24/54/20 26/55/20
f 24/54/21 7/56/21 8/57/21
f 30/58/22 7/56/22 24/54/22
f 22/59/23 10/60/23 31/61/23
f 31/61/24 10/60/24 7/56/24
f 38/62/20 10/60/20 16/63/20
f 16/63/20 10/60/20 12/64/20
f 12/64/20 10/60/20 36/65/20
f 14/66/20 10/60/20 22/59/20
f 18/67/20 33/68/20 10/60/20
f 1/69/1 2/1/1 4/3/1
f 6/5/2 32/70/2 31/6/2
f 25/17/25 28/16/25 27/71/25
f 36/20/7 17/19/7 20/29/7
f 19/72/26 18/21/26 11/23/26
f 21/73/27 16/24/27 13/26/27
f 11/23/28 14/22/28 15/28/28
f 13/74/29 12/5/29 17/19/29
f 10/31/12 35/18/12 36/20/12
f 38/33/30 37/75/30 5/34/30
f 28/16/31 8/32/31 27/71/31
f 8/32/32 5/34/32 27/71/32
f 29/12/33 6/76/33 30/35/33
f 7/77/33 30/35/33 6/76/33
f 5/42/34 6/14/34 23/46/34
f 5/42/35 23/46/35 25/48/35
f 26/55/20 24/54/20 8/57/20
f 28/78/36 26/55/36 8/57/36
f 31/6/37 32/70/37 22/27/37
f 15/28/38 22/27/38 32/70/38
f 38/62/20 8/57/20 10/60/20
f 9/8/39 15/7/39 6/14/39
f 9/79/40 10/80/40 34/81/40
f 10/80/41 33/82/41 34/81/41
f 34/81/42 33/82/42 19/83/42
f 19/83/43 33/82/43 18/84/43
f 34/85/3 19/39/3 9/8/3
f 17/86/3 35/44/3 13/43/3
f 20/87/20 12/64/20 36/65/20
f 14/66/20 18/67/20 10/60/20
f 38/33/44 16/24/44 37/75/44
f 37/75/45 16/24/45 21/73/45
f 9/8/46 6/14/46 5/42/46
f 7/56/47 10/60/47 8/57/47
